<?php
/**
 * Magento
 *
 * NOTICE OF LICENSE
 *
 * This source file is subject to the Academic Free License (AFL 3.0)
 * that is bundled with this package in the file LICENSE_AFL.txt.
 * It is also available through the world-wide-web at this URL:
 * http://opensource.org/licenses/afl-3.0.php
 * If you did not receive a copy of the license and are unable to
 * obtain it through the world-wide-web, please send an email
 * to license@magentocommerce.com so we can send you a copy immediately.
 *
 * DISCLAIMER
 *
 * Do not edit or add to this file if you wish to upgrade Magento to newer
 * versions in the future. If you wish to customize Magento for your
 * needs please refer to http://www.magentocommerce.com for more information.
 *
 * @category    design
 * @package     base_default
 * @copyright   Copyright (c) 2012 Magento Inc. (http://www.magentocommerce.com)
 * @license     http://opensource.org/licenses/afl-3.0.php  Academic Free License (AFL 3.0)
 */
/* @var $this Mage_Checkout_Block_Onepage_Progress */
?>
<div class="block block-progress opc-block-progress">
    <div class="block-title">
        <strong><span><?php echo $this->__('Your Checkout Progress') ?></span></strong>
    </div>
    <div class="block-content">
        <dl>
        <?php if ($this->getCheckout()->getStepData('billing', 'is_show')): ?>
        <?php if ($this->isStepComplete('billing')): ?>
            <dt class="complete">
                <?php echo $this->__('Billing Address') ?> <span class="separator">|</span>
                <a href="#billing" onclick="checkout.gotoSection('billing'); return false;"><?php echo $this->__('Change') ?></a>
            </dt>
            <dd class="complete">
                <address><?php echo $this->getBilling()->format('html') ?></address>
            </dd>
        <?php else: ?>
            <dt>
                <?php echo $this->__('Billing Address') ?>
            </dt>
        <?php endif; ?>
        <?php endif; ?>

        <?php if ($this->getCheckout()->getStepData('shipping', 'is_show')): ?>
			
        <?php if ($this->isStepComplete('shipping')): ?>
            <dt class="complete">
                <?php echo $this->__('Shipping Address') ?> <span class="separator">|</span>
                <a href="#payment" onclick="checkout.gotoSection('shipping');return false;"><?php echo $this->__('Change') ?></a>
            </dt>
            <dd class="complete">
                <address><?php echo $this->getShipping()->format('html') ?></address>
            </dd>
        <?php else: ?>
            <dt>
                <?php echo $this->__('Shipping Address') ?>
            </dt>
        <?php endif; ?>
        <?php endif; ?>

        <?php if ($this->getCheckout()->getStepData('shipping_method', 'is_show')): ?>
        <?php if ($this->isStepComplete('shipping_method')): ?>
            <dt class="complete">
                <?php echo $this->__('Shipping Method') ?> <span class="separator">|</span>
                <a href="#shipping_method" onclick="checkout.gotoSection('shipping_method'); return false;"><?php echo $this->__('Change') ?></a>
            </dt>
            <dd class="complete">
                <?php if ($this->getShippingMethod()): ?>
                    <?php echo $this->escapeHtml($this->getShippingDescription()) ?>

                    <?php $_excl = $this->getShippingPriceExclTax(); ?>
                    <?php $_incl = $this->getShippingPriceInclTax(); ?>
                    <?php if ($this->helper('tax')->displayShippingPriceIncludingTax()): ?>
                        <?php echo $_incl; ?>
                    <?php else: ?>
                        <?php echo $_excl; ?>
                    <?php endif; ?>
                    <?php if ($this->helper('tax')->displayShippingBothPrices() && $_incl != $_excl): ?>
                        (<?php echo $this->__('Incl. Tax'); ?> <?php echo $_incl; ?>)
                    <?php endif; ?>

                <?php else: ?>
                    <?php echo $this->__('Shipping method has not been selected yet') ?>
                <?php endif; ?>
            </dd>
            <?php 
			// Shipping Extras Start 
			
			if( Mage::getStoreConfig('nowlive/utils/enabled') )
			{
				$quote = Mage::getSingleton('checkout/session')->getQuote();
				// if($quote->)
				$jumptheq = $quote->getShippingJumpTheQ();
				$authority = $quote->getShippingFreightAuthority();
				if($jumptheq == "true" || $authority == "true" )
				{
					
				?>
				<dt class="complete">
					<?php echo $this->__('Shipping Extra Options') ?> <span class="separator">|</span>
					<a href="#shipping_method" onclick="checkout.gotoSection('shipping_method'); return false;"><?php echo $this->__('Change') ?></a>
				</dt>
				<dd class="complete">
					<?php 
					if($authority == "true" )
					{
						echo "- ".Mage::helper('utils/data')->getMethodLabel("F.AUTHORITY")." - <strong>YES</strong>";
					}
					
					if($authority == "true" && $jumptheq == "true" )
					{
						echo "<br />";
						echo "- ".Mage::helper('utils/data')->getMethodLabel("F.RUSH")." - <strong>YES</strong>";
					}
					else if ( $jumptheq == "true" )
					{
						echo "- ".Mage::helper('utils/data')->getMethodLabel("F.RUSH")." - <strong>YES</strong>";
					}
	
	
					?>
				</dd>
				<?php
				}
			}
			 // Shipping Extras END ?>
        <?php else: ?>
            <dt>
                <?php echo $this->__('Shipping Method') ?>
            </dt>
        <?php endif; ?>
        <?php endif; ?>

        <?php if ($this->getCheckout()->getStepData('payment', 'is_show')): ?>
        <?php if ($this->isStepComplete('payment')): ?>
            <dt class="complete">
                <?php echo $this->__('Payment Method') ?> <span class="separator">|</span>
                <a href="#payment" onclick="checkout.gotoSection('payment'); return false;"><?php echo $this->__('Change') ?></a>
            </dt>
            <dd class="complete">
                <?php echo $this->getPaymentHtml() ?>
            </dd>
        <?php else: ?>
            <dt>
                <?php echo $this->__('Payment Method') ?>
            </dt>
        <?php endif; ?>
        <?php endif; ?>
        </dl>
    </div>
</div>
<script type="text/javascript">
<!--
jQuery(document).ready(function($){
	$('#billing-buttons-container button').click(function(){
 	   var products = [];
 	   <?php
 	   $session= Mage::getSingleton('checkout/session');
 	   foreach($session->getQuote()->getAllItems() as $item):
 	     // $sku = $item->getSku();
 	      $name = $item->getName();
 ?>

 		var product_details = {name: '<?php echo $item->getName();?>', url: '<?php echo $item->getProduct()->getProductUrl(); ?>', image_url: '<?php echo Mage::helper('catalog/image')->init($item->getProduct(), 'thumbnail'); ?>'};
 		 products.push(product_details);
 		<?php endforeach; ?>

 		_veroq.push(['track', 'reaches checkout step billing', {products: products}]);

	});
	
	$('#shipping-buttons-container button').click(function(){
 	   var products = [];
 	   <?php
 	   $session= Mage::getSingleton('checkout/session');
 	   foreach($session->getQuote()->getAllItems() as $item):
 	     // $sku = $item->getSku();
 	      $name = $item->getName();
 ?>

 		var product_details = {name: '<?php echo $item->getName();?>', url: '<?php echo $item->getProduct()->getProductUrl(); ?>', image_url: '<?php echo Mage::helper('catalog/image')->init($item->getProduct(), 'thumbnail'); ?>'};
 		 products.push(product_details);
 		<?php endforeach; ?>

 		_veroq.push(['track', 'reaches checkout step shipping', {products: products}]);

	});
	
	$('#payment-buttons-container button').click(function(){
 	   var products = [];
 	   <?php
 	   $session= Mage::getSingleton('checkout/session');
 	   foreach($session->getQuote()->getAllItems() as $item):
 	     // $sku = $item->getSku();
 	      $name = $item->getName();
 ?>

 		var product_details = {name: '<?php echo $item->getName();?>', url: '<?php echo $item->getProduct()->getProductUrl(); ?>', image_url: '<?php echo Mage::helper('catalog/image')->init($item->getProduct(), 'thumbnail'); ?>'};
 		 products.push(product_details);
 		<?php endforeach; ?>

 		_veroq.push(['track', 'reaches checkout step payment', {products: products}]);

	});
});
//-->
</script>
